^C:\USERS\PURIC MILOVAN\DESKTOP\RE9\RE9_KOD\DEBUG\PATCH_MAKER.OBJ
C:\USERS\PURIC MILOVAN\DESKTOP\RE9\RE9_KOD\DEBUG\RE9.EXE
C:\USERS\PURIC MILOVAN\DESKTOP\RE9\RE9_KOD\DEBUG\RE9.ILK
C:\USERS\PURIC MILOVAN\DESKTOP\RE9\RE9_KOD\DEBUG\RE9.PDB
