Microsoft (R) Macro Assembler Version 14.16.27031.1	    06/25/19 17:10:38
patch_maker.asm						     Page 1 - 1


				INCLUDE Irvine32.inc
			      C ; Include file for Irvine32.lib             (Irvine32.inc)
			      C 
			      C ;OPTION CASEMAP:NONE		; optional: make identifiers case-sensitive
			      C 
			      C INCLUDE SmallWin.inc		; MS-Windows prototypes, structures, and constants
			      C .NOLIST
			      C .LIST
			      C 
			      C INCLUDE VirtualKeys.inc
			      C ; VirtualKeys.inc
			      C .NOLIST
			      C .LIST
			      C 
			      C 
			      C .NOLIST
			      C .LIST
			      C 
				INCLUDE macros.inc
			      C .NOLIST
			      C .LIST
			      C 

 = 000000FF			BUFFER_SIZE = 255

 00000000			.data
 00000000  000000FF [		buffer1 BYTE BUFFER_SIZE DUP(? )
	    00
	   ]
 000000FF  000000FF [		buffer2 BYTE BUFFER_SIZE DUP(? )
	    00
	   ]
 000001FE  000000FF [		bufferPatch BYTE BUFFER_SIZE DUP(? )
	    00
	   ]
 000002FD 50 41 54 43 48	pocetak BYTE "PATCH", 0dh, 0ah
	   0D 0A
 00000304 00			flag1 BYTE 00h
 00000305 00			flag2 BYTE 00h
 00000306 00			flag3 BYTE 00h
 00000307  00000050 [		filename    BYTE 80 DUP(0)
	    00
	   ]
 00000357 00000000		fileHandle  HANDLE ?
 = 0dh, 0ah			end_line EQU <0dh, 0ah> ;kraj reda
 0000035B 0D 0A			endl BYTE end_line

 00000000			.code
 00000000			main PROC

				; UCITAVANJE PRVOG FILE-a

				; Unos imena 
				mWrite "Unesite ime prvog file-a: "
 0000035D		     1		.data		
 0000035D 55 6E 65 73 69     1		??0000 BYTE "Unesite ime prvog file-a: ",0	
	   74 65 20 69 6D
	   65 20 70 72 76
	   6F 67 20 66 69
	   6C 65 2D 61 3A
	   20 00
 00000000		     1		.code
 00000000  52		     1		push	edx
 00000001  BA 0000035D R     1		mov	edx,OFFSET ??0000
 00000006  E8 00000000 E     1		call	WriteString
 0000000B  5A		     1		pop	edx
 0000000C  BA 00000307 R	mov	edx, OFFSET filename
 00000011  B9 00000050		mov	ecx, SIZEOF filename
 00000016  E8 00000000 E	call	ReadString

				; Otvaranje file-a za unos
 0000001B  BA 00000307 R	mov	edx, OFFSET filename
 00000020  E8 00000000 E	call	OpenInputFile
 00000025  A3 00000357 R	mov	fileHandle, eax

				; Provera gresaka
 0000002A  83 F8 FF		cmp	eax, INVALID_HANDLE_VALUE ;greske pri otvaranju file-a
 0000002D  75 11		jne	file_ok1
				mWrite <"Cannot open file", 0dh, 0ah>
 00000378		     1		.data		
 00000378 43 61 6E 6E 6F     1		??0001 BYTE "Cannot open file", 0dh, 0ah,0	
	   74 20 6F 70 65
	   6E 20 66 69 6C
	   65 0D 0A 00
 0000002F		     1		.code
 0000002F  52		     1		push	edx
 00000030  BA 00000378 R     1		mov	edx,OFFSET ??0001
 00000035  E8 00000000 E     1		call	WriteString
 0000003A  5A		     1		pop	edx
 0000003B  E9 0000021C		jmp	quit
 00000040			file_ok1 :

				; Ucitavanje file-a u buffer
 00000040  BA 00000000 R	mov	edx, OFFSET buffer1
 00000045  B9 000000FF		mov	ecx, BUFFER_SIZE
 0000004A  E8 00000000 E	call	ReadFromFile
 0000004F  73 16		jnc	check_buffer_size1 ;error reading ?
				mWrite "Error reading file. " ;yes: show error message
 0000038B		     1		.data		
 0000038B 45 72 72 6F 72     1		??0002 BYTE "Error reading file. ",0	
	   20 72 65 61 64
	   69 6E 67 20 66
	   69 6C 65 2E 20
	   00
 00000051		     1		.code
 00000051  52		     1		push	edx
 00000052  BA 0000038B R     1		mov	edx,OFFSET ??0002
 00000057  E8 00000000 E     1		call	WriteString
 0000005C  5A		     1		pop	edx
 0000005D  E8 00000000 E	call	WriteWindowsMsg
 00000062  E9 000001E5		jmp	close_file

 00000067			check_buffer_size1 :
 00000067  3D 000000FF		cmp	eax, BUFFER_SIZE ;provera da li je bafer dovoljne velicine 
 0000006C  72 11		jb	buf_size_ok1 
				mWrite <"Error: Buffer too small for the file", 0dh, 0ah>
 000003A0		     1		.data		
 000003A0 45 72 72 6F 72     1		??0003 BYTE "Error: Buffer too small for the file", 0dh, 0ah,0	
	   3A 20 42 75 66
	   66 65 72 20 74
	   6F 6F 20 73 6D
	   61 6C 6C 20 66
	   6F 72 20 74 68
	   65 20 66 69 6C
	   65 0D 0A 00
 0000006E		     1		.code
 0000006E  52		     1		push	edx
 0000006F  BA 000003A0 R     1		mov	edx,OFFSET ??0003
 00000074  E8 00000000 E     1		call	WriteString
 00000079  5A		     1		pop	edx
 0000007A  E9 000001DD		jmp	quit

 0000007F			buf_size_ok1:

				; UCITAVANJE DRUGOG FILE-a

				; Unos imena
				mWrite "Unesite ime drugog file-a: "
 000003C7		     1		.data		
 000003C7 55 6E 65 73 69     1		??0004 BYTE "Unesite ime drugog file-a: ",0	
	   74 65 20 69 6D
	   65 20 64 72 75
	   67 6F 67 20 66
	   69 6C 65 2D 61
	   3A 20 00
 0000007F		     1		.code
 0000007F  52		     1		push	edx
 00000080  BA 000003C7 R     1		mov	edx,OFFSET ??0004
 00000085  E8 00000000 E     1		call	WriteString
 0000008A  5A		     1		pop	edx
 0000008B  BA 00000307 R	mov	edx, OFFSET filename
 00000090  B9 00000050		mov	ecx, SIZEOF filename
 00000095  E8 00000000 E	call	ReadString

				; Otvaranje file-a za unos
 0000009A  BA 00000307 R	mov	edx, OFFSET filename
 0000009F  E8 00000000 E	call	OpenInputFile
 000000A4  A3 00000357 R	mov	fileHandle, eax

				; Provera gresaka
 000000A9  83 F8 FF		cmp	eax, INVALID_HANDLE_VALUE ;greske pri otvaranju file-a
 000000AC  75 11		jne	file_ok2
				mWrite <"Cannot open file", 0dh, 0ah>
 000003E3		     1		.data		
 000003E3 43 61 6E 6E 6F     1		??0005 BYTE "Cannot open file", 0dh, 0ah,0	
	   74 20 6F 70 65
	   6E 20 66 69 6C
	   65 0D 0A 00
 000000AE		     1		.code
 000000AE  52		     1		push	edx
 000000AF  BA 000003E3 R     1		mov	edx,OFFSET ??0005
 000000B4  E8 00000000 E     1		call	WriteString
 000000B9  5A		     1		pop	edx
 000000BA  E9 0000019D		jmp	quit
 000000BF			file_ok2 :

				; Ucitavanje file-a u buffer
 000000BF  BA 000000FF R	mov	edx, OFFSET buffer2
 000000C4  B9 000000FF		mov	ecx, BUFFER_SIZE
 000000C9  E8 00000000 E	call	ReadFromFile
 000000CE  73 16		jnc	check_buffer_size2 ;error reading ?
				mWrite "Error reading file. " ;yes: show error message
 000003F6		     1		.data		
 000003F6 45 72 72 6F 72     1		??0006 BYTE "Error reading file. ",0	
	   20 72 65 61 64
	   69 6E 67 20 66
	   69 6C 65 2E 20
	   00
 000000D0		     1		.code
 000000D0  52		     1		push	edx
 000000D1  BA 000003F6 R     1		mov	edx,OFFSET ??0006
 000000D6  E8 00000000 E     1		call	WriteString
 000000DB  5A		     1		pop	edx
 000000DC  E8 00000000 E	call	WriteWindowsMsg
 000000E1  E9 00000166		jmp	close_file

 000000E6			check_buffer_size2 :
 000000E6  3D 000000FF		cmp	eax, BUFFER_SIZE ;provera da li je bafer dovoljne velicine
 000000EB  72 11		jb	buf_size_ok2
				mWrite <"Error: Buffer too small for the file", 0dh, 0ah>
 0000040B		     1		.data		
 0000040B 45 72 72 6F 72     1		??0007 BYTE "Error: Buffer too small for the file", 0dh, 0ah,0	
	   3A 20 42 75 66
	   66 65 72 20 74
	   6F 6F 20 73 6D
	   61 6C 6C 20 66
	   6F 72 20 74 68
	   65 20 66 69 6C
	   65 0D 0A 00
 000000ED		     1		.code
 000000ED  52		     1		push	edx
 000000EE  BA 0000040B R     1		mov	edx,OFFSET ??0007
 000000F3  E8 00000000 E     1		call	WriteString
 000000F8  5A		     1		pop	edx
 000000F9  E9 0000015E		jmp	quit

 000000FE			buf_size_ok2:

				; Dodavanje "PATCH" na pocetak file-a
 000000FE  B9 00000007		mov ecx, (LENGTHOF pocetak)
 00000103  BE 000002FD R	mov esi, OFFSET pocetak
 00000108  BF 000001FE R	mov edi, OFFSET bufferPatch
 0000010D  FC			cld
 0000010E  F3/ A4		rep movsb

				; Obrada

 00000110  B9 00000000		mov ecx, 0 ;brojac za bafer1
 00000115  BA 00000000		mov edx , 0 ;brojac za bafer2
 0000011A  BF 00000007		mov edi, 7;brojac za baferPatch

 0000011F			again1:

 0000011F  3C 00		cmp al, 0h 
 00000121  75 09		jne nije_kraj ;kraj prvog file-a
 00000123  80 FB 00		cmp bl, 0h ; i kraj drugog
 00000126  0F 84 000000CD	je ispis ; zavrsena obrada
 0000012C			nije_kraj:
 0000012C  A0 00000304 R	mov al, flag1 ;provera da li se u oba file-a doslo do kraja reda
 00000131  22 05 00000305 R	and al, flag2
 00000137  74 38		jz label1
 00000139  41			inc ecx
 0000013A  42			inc edx
 0000013B  C6 05 00000304 R	mov flag1, 00h
	   00
 00000142  C6 05 00000305 R	mov flag2, 00h
	   00
 00000149  80 25 00000306 R	and flag3, 01h ;provera da li je postojala razlika u redu
	   01
 00000150  75 08		jnz label4
 00000152  C6 87 000001FE R	mov bufferPatch[edi], '0'
	   30
 00000159  47			inc edi
 0000015A			label4:
 0000015A  C6 87 000001FE R	mov bufferPatch[edi], 0dh
	   0D
 00000161  47			inc edi
 00000162  C6 87 000001FE R	mov bufferPatch[edi], 0ah
	   0A
 00000169  47			inc edi
 0000016A  C6 05 00000306 R	mov flag3, 00h
	   00
 00000171			label1:
 00000171  8A 81 00000000 R	mov al, [buffer1 + ecx]
 00000177  41			inc ecx
 00000178  8A 9A 000000FF R	mov bl, [buffer2 + edx]
 0000017E  42			inc edx
 0000017F  3A 05 0000035B R	cmp al, endl ;provera da li se doslo do kraja reda u prvom file-u
 00000185  75 08		jne nije1 
 00000187  49			dec ecx
 00000188  C6 05 00000304 R	mov flag1, 01h
	   01
 0000018F			nije1:
 0000018F  3A 1D 0000035B R	cmp bl, endl ;provera da li se doslo do kraja reda u drugom file-u
 00000195  75 08		jne nije2
 00000197  4A			dec edx
 00000198  C6 05 00000305 R	mov flag2, 01h
	   01
 0000019F			nije2:
 0000019F  3A C3		cmp al,bl ;poredjenje karakter po karakter
 000001A1  0F 84 FFFFFF78	je again1
 000001A7  80 25 00000304 R	and flag1, 01h
	   01
 000001AE  75 24		jnz label2
 000001B0  3C 20		cmp al, ' ' ;izbegavanje upisa ' ' na pocetku reda patch file-a
 000001B2  75 0D		jne label5
 000001B4  80 25 00000306 R	and flag3, 01h
	   01
 000001BB  0F 84 FFFFFF5E	jz again1
 000001C1			label5:
 000001C1  88 87 000001FE R	mov bufferPatch[edi], al
 000001C7  47			inc edi
 000001C8  C6 05 00000306 R	mov flag3, 01h
	   01
 000001CF  E9 FFFFFF4B		jmp again1
 000001D4			label2:
 000001D4  80 FB 20		cmp bl, ' ' ;izbegavanje upisa ' ' na pocetku reda patch file-a
 000001D7  75 0D		jne label6
 000001D9  80 25 00000306 R	and flag3, 01h
	   01
 000001E0  0F 84 FFFFFF39	jz again1
 000001E6			label6:
 000001E6  88 9F 000001FE R	mov bufferPatch[edi], bl
 000001EC  47			inc edi
 000001ED  C6 05 00000306 R	mov flag3, 01h ; oznaka da je nesto upisano u tom redu patch file-a
	   01
 000001F4  E9 FFFFFF26		jmp again1

 000001F9			ispis:

				; UNOS U PATCH FILE

				; Unos imena patch file-a
				mWrite "Unesite ime PATCH file-a: "
 00000432		     1		.data		
 00000432 55 6E 65 73 69     1		??0008 BYTE "Unesite ime PATCH file-a: ",0	
	   74 65 20 69 6D
	   65 20 50 41 54
	   43 48 20 66 69
	   6C 65 2D 61 3A
	   20 00
 000001F9		     1		.code
 000001F9  52		     1		push	edx
 000001FA  BA 00000432 R     1		mov	edx,OFFSET ??0008
 000001FF  E8 00000000 E     1		call	WriteString
 00000204  5A		     1		pop	edx
 00000205  BA 00000307 R	mov	edx, OFFSET filename
 0000020A  B9 00000050		mov	ecx, SIZEOF filename
 0000020F  E8 00000000 E	call	ReadString

				; Kreiranje izlaznog file-a
 00000214  BA 00000307 R	mov edx, OFFSET filename
 00000219  E8 00000000 E	call	CreateOutputFile
 0000021E  A3 00000357 R	mov filehandle, eax

				; Ispis u izlazni file
 00000223  A1 00000357 R	mov eax, fileHandle
 00000228  BA 000001FE R	mov edx, OFFSET bufferPatch
 0000022D  B9 000000FF		mov ecx, BUFFER_SIZE
 00000232  E8 00000000 E	call	WriteToFile
 00000237  73 13		jnc close_file
				mWrite "Error writing file. "; error message
 0000044D		     1		.data		
 0000044D 45 72 72 6F 72     1		??0009 BYTE "Error writing file. ",0	
	   20 77 72 69 74
	   69 6E 67 20 66
	   69 6C 65 2E 20
	   00
 00000239		     1		.code
 00000239  52		     1		push	edx
 0000023A  BA 0000044D R     1		mov	edx,OFFSET ??0009
 0000023F  E8 00000000 E     1		call	WriteString
 00000244  5A		     1		pop	edx
 00000245  E8 00000000 E	call	WriteWindowsMsg
 0000024A  EB 00		jmp	close_file

 0000024C			close_file:
				INVOKE Sleep, edi; cekanje pre izlaza 
 0000024C  57		   *	    push   edi
 0000024D  E8 00000000 E   *	    call   Sleep
 00000252  A1 00000357 R	mov	eax, fileHandle
 00000257  E8 00000000 E	call	CloseFile

 0000025C			quit :
				invoke ExitProcess, 0
 0000025C  6A 00	   *	    push   +000000000h
 0000025E  E8 00000000 E   *	    call   ExitProcess
 00000263			main ENDP

				END main
Microsoft (R) Macro Assembler Version 14.16.27031.1	    06/25/19 17:10:38
patch_maker.asm						     Symbols 2 - 1




Macros:

                N a m e                 Type

IsDefined  . . . . . . . . . . .	Func
Startup  . . . . . . . . . . . .	Proc
mDumpMem . . . . . . . . . . . .	Proc
mDump  . . . . . . . . . . . . .	Proc
mGotoxy  . . . . . . . . . . . .	Proc
mReadString  . . . . . . . . . .	Proc
mShowRegister  . . . . . . . . .	Proc
mShow  . . . . . . . . . . . . .	Proc
mWriteLn . . . . . . . . . . . .	Proc
mWriteSpace  . . . . . . . . . .	Proc
mWriteString . . . . . . . . . .	Proc
mWrite . . . . . . . . . . . . .	Proc


Structures and Unions:

                N a m e                  Size
                                         Offset      Type

CONSOLE_CURSOR_INFO  . . . . . .	 00000008
  dwSize . . . . . . . . . . . .	 00000000	 DWord
  bVisible . . . . . . . . . . .	 00000004	 DWord
CONSOLE_SCREEN_BUFFER_INFO . . .	 00000016
  dwSize . . . . . . . . . . . .	 00000000	 DWord
  dwCursorPosition . . . . . . .	 00000004	 DWord
  wAttributes  . . . . . . . . .	 00000008	 Word
  srWindow . . . . . . . . . . .	 0000000A	 QWord
  dwMaximumWindowSize  . . . . .	 00000012	 DWord
COORD  . . . . . . . . . . . . .	 00000004
  X  . . . . . . . . . . . . . .	 00000000	 Word
  Y  . . . . . . . . . . . . . .	 00000002	 Word
FILETIME . . . . . . . . . . . .	 00000008
  loDateTime . . . . . . . . . .	 00000000	 DWord
  hiDateTime . . . . . . . . . .	 00000004	 DWord
FOCUS_EVENT_RECORD . . . . . . .	 00000004
  bSetFocus  . . . . . . . . . .	 00000000	 DWord
FPU_ENVIRON  . . . . . . . . . .	 0000001C
  controlWord  . . . . . . . . .	 00000000	 Word
  statusWord . . . . . . . . . .	 00000004	 Word
  tagWord  . . . . . . . . . . .	 00000008	 Word
  instrPointerOffset . . . . . .	 0000000C	 DWord
  instrPointerSelector . . . . .	 00000010	 DWord
  operandPointerOffset . . . . .	 00000014	 DWord
  operandPointerSelector . . . .	 00000018	 Word
INPUT_RECORD . . . . . . . . . .	 00000014
  EventType  . . . . . . . . . .	 00000000	 Word
  Event  . . . . . . . . . . . .	 00000004	 XmmWord
  bKeyDown . . . . . . . . . . .	 00000000	 DWord
  wRepeatCount . . . . . . . . .	 00000004	 Word
  wVirtualKeyCode  . . . . . . .	 00000006	 Word
  wVirtualScanCode . . . . . . .	 00000008	 Word
  uChar  . . . . . . . . . . . .	 0000000A	 Word
  UnicodeChar  . . . . . . . . .	 00000000	 Word
  AsciiChar  . . . . . . . . . .	 00000000	 Byte
  dwControlKeyState  . . . . . .	 0000000C	 DWord
  dwMousePosition  . . . . . . .	 00000000	 DWord
  dwButtonState  . . . . . . . .	 00000004	 DWord
  dwMouseControlKeyState . . . .	 00000008	 DWord
  dwEventFlags . . . . . . . . .	 0000000C	 DWord
  dwSize . . . . . . . . . . . .	 00000000	 DWord
  dwCommandId  . . . . . . . . .	 00000000	 DWord
  bSetFocus  . . . . . . . . . .	 00000000	 DWord
KEY_EVENT_RECORD . . . . . . . .	 00000010
  bKeyDown . . . . . . . . . . .	 00000000	 DWord
  wRepeatCount . . . . . . . . .	 00000004	 Word
  wVirtualKeyCode  . . . . . . .	 00000006	 Word
  wVirtualScanCode . . . . . . .	 00000008	 Word
  uChar  . . . . . . . . . . . .	 0000000A	 Word
  UnicodeChar  . . . . . . . . .	 00000000	 Word
  AsciiChar  . . . . . . . . . .	 00000000	 Byte
  dwControlKeyState  . . . . . .	 0000000C	 DWord
MENU_EVENT_RECORD  . . . . . . .	 00000004
  dwCommandId  . . . . . . . . .	 00000000	 DWord
MOUSE_EVENT_RECORD . . . . . . .	 00000010
  dwMousePosition  . . . . . . .	 00000000	 DWord
  dwButtonState  . . . . . . . .	 00000004	 DWord
  dwMouseControlKeyState . . . .	 00000008	 DWord
  dwEventFlags . . . . . . . . .	 0000000C	 DWord
SMALL_RECT . . . . . . . . . . .	 00000008
  Left . . . . . . . . . . . . .	 00000000	 Word
  Top  . . . . . . . . . . . . .	 00000002	 Word
  Right  . . . . . . . . . . . .	 00000004	 Word
  Bottom . . . . . . . . . . . .	 00000006	 Word
SYSTEMTIME . . . . . . . . . . .	 00000010
  wYear  . . . . . . . . . . . .	 00000000	 Word
  wMonth . . . . . . . . . . . .	 00000002	 Word
  wDayOfWeek . . . . . . . . . .	 00000004	 Word
  wDay . . . . . . . . . . . . .	 00000006	 Word
  wHour  . . . . . . . . . . . .	 00000008	 Word
  wMinute  . . . . . . . . . . .	 0000000A	 Word
  wSecond  . . . . . . . . . . .	 0000000C	 Word
  wMilliseconds  . . . . . . . .	 0000000E	 Word
WINDOW_BUFFER_SIZE_RECORD  . . .	 00000004
  dwSize . . . . . . . . . . . .	 00000000	 DWord


Segments and Groups:

                N a m e                 Size     Length   Align   Combine Class

FLAT . . . . . . . . . . . . . .	GROUP
STACK  . . . . . . . . . . . . .	32 Bit	 00001000 Para	  Stack	  'STACK'	 
_DATA  . . . . . . . . . . . . .	32 Bit	 00000462 Para	  Public  'DATA'	
_TEXT  . . . . . . . . . . . . .	32 Bit	 00000263 Para	  Public  'CODE'	


Procedures, parameters, and locals:

                N a m e                 Type     Value    Attr

CloseFile  . . . . . . . . . . .	P Near	 00000000 FLAT	Length= 00000000 External STDCALL
CloseHandle  . . . . . . . . . .	P Near	 00000000 FLAT	Length= 00000000 External STDCALL
Clrscr . . . . . . . . . . . . .	P Near	 00000000 FLAT	Length= 00000000 External STDCALL
CreateFileA  . . . . . . . . . .	P Near	 00000000 FLAT	Length= 00000000 External STDCALL
CreateOutputFile . . . . . . . .	P Near	 00000000 FLAT	Length= 00000000 External STDCALL
Crlf . . . . . . . . . . . . . .	P Near	 00000000 FLAT	Length= 00000000 External STDCALL
Delay  . . . . . . . . . . . . .	P Near	 00000000 FLAT	Length= 00000000 External STDCALL
DumpMem  . . . . . . . . . . . .	P Near	 00000000 FLAT	Length= 00000000 External STDCALL
DumpRegs . . . . . . . . . . . .	P Near	 00000000 FLAT	Length= 00000000 External STDCALL
ExitProcess  . . . . . . . . . .	P Near	 00000000 FLAT	Length= 00000000 External STDCALL
FileTimeToDosDateTime  . . . . .	P Near	 00000000 FLAT	Length= 00000000 External STDCALL
FileTimeToSystemTime . . . . . .	P Near	 00000000 FLAT	Length= 00000000 External STDCALL
FlushConsoleInputBuffer  . . . .	P Near	 00000000 FLAT	Length= 00000000 External STDCALL
FormatMessageA . . . . . . . . .	P Near	 00000000 FLAT	Length= 00000000 External STDCALL
GetCommandLineA  . . . . . . . .	P Near	 00000000 FLAT	Length= 00000000 External STDCALL
GetCommandTail . . . . . . . . .	P Near	 00000000 FLAT	Length= 00000000 External STDCALL
GetConsoleCP . . . . . . . . . .	P Near	 00000000 FLAT	Length= 00000000 External STDCALL
GetConsoleCursorInfo . . . . . .	P Near	 00000000 FLAT	Length= 00000000 External STDCALL
GetConsoleMode . . . . . . . . .	P Near	 00000000 FLAT	Length= 00000000 External STDCALL
GetConsoleScreenBufferInfo . . .	P Near	 00000000 FLAT	Length= 00000000 External STDCALL
GetDateTime  . . . . . . . . . .	P Near	 00000000 FLAT	Length= 00000000 External STDCALL
GetFileTime  . . . . . . . . . .	P Near	 00000000 FLAT	Length= 00000000 External STDCALL
GetKeyState  . . . . . . . . . .	P Near	 00000000 FLAT	Length= 00000000 External STDCALL
GetLastError . . . . . . . . . .	P Near	 00000000 FLAT	Length= 00000000 External STDCALL
GetLocalTime . . . . . . . . . .	P Near	 00000000 FLAT	Length= 00000000 External STDCALL
GetMaxXY . . . . . . . . . . . .	P Near	 00000000 FLAT	Length= 00000000 External STDCALL
GetMseconds  . . . . . . . . . .	P Near	 00000000 FLAT	Length= 00000000 External STDCALL
GetNumberOfConsoleInputEvents  .	P Near	 00000000 FLAT	Length= 00000000 External STDCALL
GetProcessHeap . . . . . . . . .	P Near	 00000000 FLAT	Length= 00000000 External STDCALL
GetStdHandle . . . . . . . . . .	P Near	 00000000 FLAT	Length= 00000000 External STDCALL
GetSystemTime  . . . . . . . . .	P Near	 00000000 FLAT	Length= 00000000 External STDCALL
GetTextColor . . . . . . . . . .	P Near	 00000000 FLAT	Length= 00000000 External STDCALL
GetTickCount . . . . . . . . . .	P Near	 00000000 FLAT	Length= 00000000 External STDCALL
Gotoxy . . . . . . . . . . . . .	P Near	 00000000 FLAT	Length= 00000000 External STDCALL
HeapAlloc  . . . . . . . . . . .	P Near	 00000000 FLAT	Length= 00000000 External STDCALL
HeapCreate . . . . . . . . . . .	P Near	 00000000 FLAT	Length= 00000000 External STDCALL
HeapDestroy  . . . . . . . . . .	P Near	 00000000 FLAT	Length= 00000000 External STDCALL
HeapFree . . . . . . . . . . . .	P Near	 00000000 FLAT	Length= 00000000 External STDCALL
HeapSize . . . . . . . . . . . .	P Near	 00000000 FLAT	Length= 00000000 External STDCALL
IsDigit  . . . . . . . . . . . .	P Near	 00000000 FLAT	Length= 00000000 External STDCALL
LocalFree  . . . . . . . . . . .	P Near	 00000000 FLAT	Length= 00000000 External STDCALL
MessageBoxA  . . . . . . . . . .	P Near	 00000000 FLAT	Length= 00000000 External STDCALL
MsgBoxAsk  . . . . . . . . . . .	P Near	 00000000 FLAT	Length= 00000000 External STDCALL
MsgBox . . . . . . . . . . . . .	P Near	 00000000 FLAT	Length= 00000000 External STDCALL
OpenInputFile  . . . . . . . . .	P Near	 00000000 FLAT	Length= 00000000 External STDCALL
ParseDecimal32 . . . . . . . . .	P Near	 00000000 FLAT	Length= 00000000 External STDCALL
ParseInteger32 . . . . . . . . .	P Near	 00000000 FLAT	Length= 00000000 External STDCALL
PeekConsoleInputA  . . . . . . .	P Near	 00000000 FLAT	Length= 00000000 External STDCALL
Random32 . . . . . . . . . . . .	P Near	 00000000 FLAT	Length= 00000000 External STDCALL
RandomRange  . . . . . . . . . .	P Near	 00000000 FLAT	Length= 00000000 External STDCALL
Randomize  . . . . . . . . . . .	P Near	 00000000 FLAT	Length= 00000000 External STDCALL
ReadChar . . . . . . . . . . . .	P Near	 00000000 FLAT	Length= 00000000 External STDCALL
ReadConsoleA . . . . . . . . . .	P Near	 00000000 FLAT	Length= 00000000 External STDCALL
ReadConsoleInputA  . . . . . . .	P Near	 00000000 FLAT	Length= 00000000 External STDCALL
ReadDec  . . . . . . . . . . . .	P Near	 00000000 FLAT	Length= 00000000 External STDCALL
ReadFile . . . . . . . . . . . .	P Near	 00000000 FLAT	Length= 00000000 External STDCALL
ReadFloat  . . . . . . . . . . .	P Near	 00000000 FLAT	Length= 00000000 External STDCALL
ReadFromFile . . . . . . . . . .	P Near	 00000000 FLAT	Length= 00000000 External STDCALL
ReadHex  . . . . . . . . . . . .	P Near	 00000000 FLAT	Length= 00000000 External STDCALL
ReadInt  . . . . . . . . . . . .	P Near	 00000000 FLAT	Length= 00000000 External STDCALL
ReadKeyFlush . . . . . . . . . .	P Near	 00000000 FLAT	Length= 00000000 External STDCALL
ReadKey  . . . . . . . . . . . .	P Near	 00000000 FLAT	Length= 00000000 External STDCALL
ReadString . . . . . . . . . . .	P Near	 00000000 FLAT	Length= 00000000 External STDCALL
SetConsoleCursorInfo . . . . . .	P Near	 00000000 FLAT	Length= 00000000 External STDCALL
SetConsoleCursorPosition . . . .	P Near	 00000000 FLAT	Length= 00000000 External STDCALL
SetConsoleMode . . . . . . . . .	P Near	 00000000 FLAT	Length= 00000000 External STDCALL
SetConsoleScreenBufferSize . . .	P Near	 00000000 FLAT	Length= 00000000 External STDCALL
SetConsoleTextAttribute  . . . .	P Near	 00000000 FLAT	Length= 00000000 External STDCALL
SetConsoleTitleA . . . . . . . .	P Near	 00000000 FLAT	Length= 00000000 External STDCALL
SetConsoleWindowInfo . . . . . .	P Near	 00000000 FLAT	Length= 00000000 External STDCALL
SetFilePointer . . . . . . . . .	P Near	 00000000 FLAT	Length= 00000000 External STDCALL
SetLocalTime . . . . . . . . . .	P Near	 00000000 FLAT	Length= 00000000 External STDCALL
SetTextColor . . . . . . . . . .	P Near	 00000000 FLAT	Length= 00000000 External STDCALL
ShowFPUStack . . . . . . . . . .	P Near	 00000000 FLAT	Length= 00000000 External STDCALL
Sleep  . . . . . . . . . . . . .	P Near	 00000000 FLAT	Length= 00000000 External STDCALL
StrLength  . . . . . . . . . . .	P Near	 00000000 FLAT	Length= 00000000 External STDCALL
Str_compare  . . . . . . . . . .	P Near	 00000000 FLAT	Length= 00000000 External STDCALL
Str_copy . . . . . . . . . . . .	P Near	 00000000 FLAT	Length= 00000000 External STDCALL
Str_length . . . . . . . . . . .	P Near	 00000000 FLAT	Length= 00000000 External STDCALL
Str_trim . . . . . . . . . . . .	P Near	 00000000 FLAT	Length= 00000000 External STDCALL
Str_ucase  . . . . . . . . . . .	P Near	 00000000 FLAT	Length= 00000000 External STDCALL
SystemTimeToFileTime . . . . . .	P Near	 00000000 FLAT	Length= 00000000 External STDCALL
WaitMsg  . . . . . . . . . . . .	P Near	 00000000 FLAT	Length= 00000000 External STDCALL
WriteBinB  . . . . . . . . . . .	P Near	 00000000 FLAT	Length= 00000000 External STDCALL
WriteBin . . . . . . . . . . . .	P Near	 00000000 FLAT	Length= 00000000 External STDCALL
WriteChar  . . . . . . . . . . .	P Near	 00000000 FLAT	Length= 00000000 External STDCALL
WriteConsoleA  . . . . . . . . .	P Near	 00000000 FLAT	Length= 00000000 External STDCALL
WriteConsoleOutputAttribute  . .	P Near	 00000000 FLAT	Length= 00000000 External STDCALL
WriteConsoleOutputCharacterA . .	P Near	 00000000 FLAT	Length= 00000000 External STDCALL
WriteDec . . . . . . . . . . . .	P Near	 00000000 FLAT	Length= 00000000 External STDCALL
WriteFile  . . . . . . . . . . .	P Near	 00000000 FLAT	Length= 00000000 External STDCALL
WriteFloat . . . . . . . . . . .	P Near	 00000000 FLAT	Length= 00000000 External STDCALL
WriteHexB  . . . . . . . . . . .	P Near	 00000000 FLAT	Length= 00000000 External STDCALL
WriteHex . . . . . . . . . . . .	P Near	 00000000 FLAT	Length= 00000000 External STDCALL
WriteInt . . . . . . . . . . . .	P Near	 00000000 FLAT	Length= 00000000 External STDCALL
WriteStackFrameName  . . . . . .	P Near	 00000000 FLAT	Length= 00000000 External STDCALL
WriteStackFrame  . . . . . . . .	P Near	 00000000 FLAT	Length= 00000000 External STDCALL
WriteString  . . . . . . . . . .	P Near	 00000000 FLAT	Length= 00000000 External STDCALL
WriteToFile  . . . . . . . . . .	P Near	 00000000 FLAT	Length= 00000000 External STDCALL
WriteWindowsMsg  . . . . . . . .	P Near	 00000000 FLAT	Length= 00000000 External STDCALL
main . . . . . . . . . . . . . .	P Near	 00000000 _TEXT	Length= 00000263 Public STDCALL
  file_ok1 . . . . . . . . . . .	L Near	 00000040 _TEXT	
  check_buffer_size1 . . . . . .	L Near	 00000067 _TEXT	
  buf_size_ok1 . . . . . . . . .	L Near	 0000007F _TEXT	
  file_ok2 . . . . . . . . . . .	L Near	 000000BF _TEXT	
  check_buffer_size2 . . . . . .	L Near	 000000E6 _TEXT	
  buf_size_ok2 . . . . . . . . .	L Near	 000000FE _TEXT	
  again1 . . . . . . . . . . . .	L Near	 0000011F _TEXT	
  nije_kraj  . . . . . . . . . .	L Near	 0000012C _TEXT	
  label4 . . . . . . . . . . . .	L Near	 0000015A _TEXT	
  label1 . . . . . . . . . . . .	L Near	 00000171 _TEXT	
  nije1  . . . . . . . . . . . .	L Near	 0000018F _TEXT	
  nije2  . . . . . . . . . . . .	L Near	 0000019F _TEXT	
  label5 . . . . . . . . . . . .	L Near	 000001C1 _TEXT	
  label2 . . . . . . . . . . . .	L Near	 000001D4 _TEXT	
  label6 . . . . . . . . . . . .	L Near	 000001E6 _TEXT	
  ispis  . . . . . . . . . . . .	L Near	 000001F9 _TEXT	
  close_file . . . . . . . . . .	L Near	 0000024C _TEXT	
  quit . . . . . . . . . . . . .	L Near	 0000025C _TEXT	
printf . . . . . . . . . . . . .	P Near	 00000000 FLAT	Length= 00000000 External C
scanf  . . . . . . . . . . . . .	P Near	 00000000 FLAT	Length= 00000000 External C
wsprintfA  . . . . . . . . . . .	P Near	 00000000 FLAT	Length= 00000000 External C


Symbols:

                N a m e                 Type     Value    Attr

??0000 . . . . . . . . . . . . .	Byte	 0000035D _DATA	
??0001 . . . . . . . . . . . . .	Byte	 00000378 _DATA	
??0002 . . . . . . . . . . . . .	Byte	 0000038B _DATA	
??0003 . . . . . . . . . . . . .	Byte	 000003A0 _DATA	
??0004 . . . . . . . . . . . . .	Byte	 000003C7 _DATA	
??0005 . . . . . . . . . . . . .	Byte	 000003E3 _DATA	
??0006 . . . . . . . . . . . . .	Byte	 000003F6 _DATA	
??0007 . . . . . . . . . . . . .	Byte	 0000040B _DATA	
??0008 . . . . . . . . . . . . .	Byte	 00000432 _DATA	
??0009 . . . . . . . . . . . . .	Byte	 0000044D _DATA	
@CodeSize  . . . . . . . . . . .	Number	 00000000h   
@DataSize  . . . . . . . . . . .	Number	 00000000h   
@Interface . . . . . . . . . . .	Number	 00000003h   
@Model . . . . . . . . . . . . .	Number	 00000007h   
@code  . . . . . . . . . . . . .	Text   	 _TEXT
@data  . . . . . . . . . . . . .	Text   	 FLAT
@fardata?  . . . . . . . . . . .	Text   	 FLAT
@fardata . . . . . . . . . . . .	Text   	 FLAT
@stack . . . . . . . . . . . . .	Text   	 FLAT
ALT_MASK . . . . . . . . . . . .	Number	 00000003h   
BUFFER_SIZE  . . . . . . . . . .	Number	 000000FFh   
CAPSLOCK_ON  . . . . . . . . . .	Number	 00000080h   
CREATE_ALWAYS  . . . . . . . . .	Number	 00000002h   
CREATE_NEW . . . . . . . . . . .	Number	 00000001h   
CTRL_MASK  . . . . . . . . . . .	Number	 0000000Ch   
CreateFile . . . . . . . . . . .	Text   	 CreateFileA
DO_NOT_SHARE . . . . . . . . . .	Number	 00000000h   
ENABLE_ECHO_INPUT  . . . . . . .	Number	 00000004h   
ENABLE_LINE_INPUT  . . . . . . .	Number	 00000002h   
ENABLE_MOUSE_INPUT . . . . . . .	Number	 00000010h   
ENABLE_PROCESSED_INPUT . . . . .	Number	 00000001h   
ENABLE_PROCESSED_OUTPUT  . . . .	Number	 00000001h   
ENABLE_WINDOW_INPUT  . . . . . .	Number	 00000008h   
ENABLE_WRAP_AT_EOL_OUTPUT  . . .	Number	 00000002h   
ENHANCED_KEY . . . . . . . . . .	Number	 00000100h   
FALSE  . . . . . . . . . . . . .	Number	 00000000h   
FILE_APPEND_DATA . . . . . . . .	Number	 00000004h   
FILE_ATTRIBUTE_ARCHIVE . . . . .	Number	 00000020h   
FILE_ATTRIBUTE_COMPRESSED  . . .	Number	 00000800h   
FILE_ATTRIBUTE_DEVICE  . . . . .	Number	 00000040h   
FILE_ATTRIBUTE_DIRECTORY . . . .	Number	 00000010h   
FILE_ATTRIBUTE_ENCRYPTED . . . .	Number	 00004000h   
FILE_ATTRIBUTE_HIDDEN  . . . . .	Number	 00000002h   
FILE_ATTRIBUTE_NORMAL  . . . . .	Number	 00000080h   
FILE_ATTRIBUTE_NOT_CONTENT_INDEXED .	Number	 00002000h   
FILE_ATTRIBUTE_OFFLINE . . . . .	Number	 00001000h   
FILE_ATTRIBUTE_READONLY  . . . .	Number	 00000001h   
FILE_ATTRIBUTE_REPARSE_POINT . .	Number	 00000400h   
FILE_ATTRIBUTE_SPARSE_FILE . . .	Number	 00000200h   
FILE_ATTRIBUTE_SYSTEM  . . . . .	Number	 00000004h   
FILE_ATTRIBUTE_TEMPORARY . . . .	Number	 00000100h   
FILE_BEGIN . . . . . . . . . . .	Number	 00000000h   
FILE_CURRENT . . . . . . . . . .	Number	 00000001h   
FILE_DELETE_CHILD  . . . . . . .	Number	 00000040h   
FILE_END . . . . . . . . . . . .	Number	 00000002h   
FILE_READ_DATA . . . . . . . . .	Number	 00000001h   
FILE_SHARE_DELETE  . . . . . . .	Number	 00000004h   
FILE_SHARE_READ  . . . . . . . .	Number	 00000001h   
FILE_SHARE_WRITE . . . . . . . .	Number	 00000002h   
FILE_WRITE_DATA  . . . . . . . .	Number	 00000002h   
FOCUS_EVENT  . . . . . . . . . .	Number	 00000010h   
FORMAT_MESSAGE_ALLOCATE_BUFFER .	Number	 00000100h   
FORMAT_MESSAGE_FROM_SYSTEM . . .	Number	 00001000h   
FormatMessage  . . . . . . . . .	Text   	 FormatMessageA
GENERIC_ALL  . . . . . . . . . .	Number	 10000000h   
GENERIC_EXECUTE  . . . . . . . .	Number	 20000000h   
GENERIC_READ . . . . . . . . . .	Number	 -80000000h   
GENERIC_WRITE  . . . . . . . . .	Number	 40000000h   
GetCommandLine . . . . . . . . .	Text   	 GetCommandLineA
HANDLE . . . . . . . . . . . . .	Text   	 DWORD
HEAP_GENERATE_EXCEPTIONS . . . .	Number	 00000004h   
HEAP_GROWABLE  . . . . . . . . .	Number	 00000002h   
HEAP_NO_SERIALIZE  . . . . . . .	Number	 00000001h   
HEAP_REALLOC_IN_PLACE_ONLY . . .	Number	 00000010h   
HEAP_ZERO_MEMORY . . . . . . . .	Number	 00000008h   
IDABORT  . . . . . . . . . . . .	Number	 00000003h   
IDCANCEL . . . . . . . . . . . .	Number	 00000002h   
IDCLOSE  . . . . . . . . . . . .	Number	 00000008h   
IDCONTINUE . . . . . . . . . . .	Number	 0000000Bh   
IDHELP . . . . . . . . . . . . .	Number	 00000009h   
IDIGNORE . . . . . . . . . . . .	Number	 00000005h   
IDNO . . . . . . . . . . . . . .	Number	 00000007h   
IDOK . . . . . . . . . . . . . .	Number	 00000001h   
IDRETRY  . . . . . . . . . . . .	Number	 00000004h   
IDTIMEOUT  . . . . . . . . . . .	Number	 00007D00h   
IDTRYAGAIN . . . . . . . . . . .	Number	 0000000Ah   
IDYES  . . . . . . . . . . . . .	Number	 00000006h   
INVALID_HANDLE_VALUE . . . . . .	Number	 -00000001h   
KBDOWN_FLAG  . . . . . . . . . .	Number	 00000001h   
KEY_EVENT  . . . . . . . . . . .	Number	 00000001h   
KEY_MASKS  . . . . . . . . . . .	Number	 0000001Fh   
LEFT_ALT_PRESSED . . . . . . . .	Number	 00000002h   
LEFT_CTRL_PRESSED  . . . . . . .	Number	 00000008h   
MB_ABORTRETRYIGNORE  . . . . . .	Number	 00000002h   
MB_APPLMODAL . . . . . . . . . .	Number	 00000000h   
MB_CANCELTRYCONTINUE . . . . . .	Number	 00000006h   
MB_DEFBUTTON1  . . . . . . . . .	Number	 00000000h   
MB_DEFBUTTON2  . . . . . . . . .	Number	 00000100h   
MB_DEFBUTTON3  . . . . . . . . .	Number	 00000200h   
MB_DEFBUTTON4  . . . . . . . . .	Number	 00000300h   
MB_HELP  . . . . . . . . . . . .	Number	 00004000h   
MB_ICONASTERISK  . . . . . . . .	Number	 00000040h   
MB_ICONERROR . . . . . . . . . .	Number	 00000010h   
MB_ICONEXCLAMATION . . . . . . .	Number	 00000030h   
MB_ICONHAND  . . . . . . . . . .	Number	 00000010h   
MB_ICONINFORMATION . . . . . . .	Number	 00000040h   
MB_ICONQUESTION  . . . . . . . .	Number	 00000020h   
MB_ICONSTOP  . . . . . . . . . .	Number	 00000010h   
MB_ICONWARNING . . . . . . . . .	Number	 00000030h   
MB_OKCANCEL  . . . . . . . . . .	Number	 00000001h   
MB_OK  . . . . . . . . . . . . .	Number	 00000000h   
MB_RETRYCANCEL . . . . . . . . .	Number	 00000005h   
MB_SYSTEMMODAL . . . . . . . . .	Number	 00001000h   
MB_TASKMODAL . . . . . . . . . .	Number	 00002000h   
MB_USERICON  . . . . . . . . . .	Number	 00000080h   
MB_YESNOCANCEL . . . . . . . . .	Number	 00000003h   
MB_YESNO . . . . . . . . . . . .	Number	 00000004h   
MENU_EVENT . . . . . . . . . . .	Number	 00000008h   
MOUSE_EVENT  . . . . . . . . . .	Number	 00000002h   
MessageBox . . . . . . . . . . .	Text   	 MessageBoxA
NULL . . . . . . . . . . . . . .	Number	 00000000h   
NUMLOCK_ON . . . . . . . . . . .	Number	 00000020h   
OPEN_ALWAYS  . . . . . . . . . .	Number	 00000004h   
OPEN_EXISTING  . . . . . . . . .	Number	 00000003h   
PeekConsoleInput . . . . . . . .	Text   	 PeekConsoleInputA
RIGHT_ALT_PRESSED  . . . . . . .	Number	 00000001h   
RIGHT_CTRL_PRESSED . . . . . . .	Number	 00000004h   
ReadConsoleInput . . . . . . . .	Text   	 ReadConsoleInputA
ReadConsole  . . . . . . . . . .	Text   	 ReadConsoleA
SCROLLLOCK_ON  . . . . . . . . .	Number	 00000040h   
SHIFT_MASK . . . . . . . . . . .	Number	 00000010h   
SHIFT_PRESSED  . . . . . . . . .	Number	 00000010h   
STD_ERROR_HANDLE . . . . . . . .	Number	 -0000000Ch   
STD_INPUT_HANDLE . . . . . . . .	Number	 -0000000Ah   
STD_OUTPUT_HANDLE  . . . . . . .	Number	 -0000000Bh   
SetConsoleTitle  . . . . . . . .	Text   	 SetConsoleTitleA
TAB  . . . . . . . . . . . . . .	Number	 00000009h   
TRUE . . . . . . . . . . . . . .	Number	 00000001h   
TRUNCATE_EXISTING  . . . . . . .	Number	 00000005h   
VK_11  . . . . . . . . . . . . .	Number	 000000BDh   
VK_12  . . . . . . . . . . . . .	Number	 000000BBh   
VK_ADD . . . . . . . . . . . . .	Number	 0000006Bh   
VK_BACK  . . . . . . . . . . . .	Number	 00000008h   
VK_CANCEL  . . . . . . . . . . .	Number	 00000003h   
VK_CAPITAL . . . . . . . . . . .	Number	 00000014h   
VK_CLEAR . . . . . . . . . . . .	Number	 0000000Ch   
VK_CONTROL . . . . . . . . . . .	Number	 00000011h   
VK_DECIMAL . . . . . . . . . . .	Number	 0000006Eh   
VK_DELETE  . . . . . . . . . . .	Number	 0000002Eh   
VK_DIVIDE  . . . . . . . . . . .	Number	 0000006Fh   
VK_DOWN  . . . . . . . . . . . .	Number	 00000028h   
VK_END . . . . . . . . . . . . .	Number	 00000023h   
VK_ESCAPE  . . . . . . . . . . .	Number	 0000001Bh   
VK_EXECUTE . . . . . . . . . . .	Number	 0000002Bh   
VK_F10 . . . . . . . . . . . . .	Number	 00000079h   
VK_F11 . . . . . . . . . . . . .	Number	 0000007Ah   
VK_F12 . . . . . . . . . . . . .	Number	 0000007Bh   
VK_F13 . . . . . . . . . . . . .	Number	 0000007Ch   
VK_F14 . . . . . . . . . . . . .	Number	 0000007Dh   
VK_F15 . . . . . . . . . . . . .	Number	 0000007Eh   
VK_F16 . . . . . . . . . . . . .	Number	 0000007Fh   
VK_F17 . . . . . . . . . . . . .	Number	 00000080h   
VK_F18 . . . . . . . . . . . . .	Number	 00000081h   
VK_F19 . . . . . . . . . . . . .	Number	 00000082h   
VK_F1  . . . . . . . . . . . . .	Number	 00000070h   
VK_F20 . . . . . . . . . . . . .	Number	 00000083h   
VK_F21 . . . . . . . . . . . . .	Number	 00000084h   
VK_F22 . . . . . . . . . . . . .	Number	 00000085h   
VK_F23 . . . . . . . . . . . . .	Number	 00000086h   
VK_F24 . . . . . . . . . . . . .	Number	 00000087h   
VK_F2  . . . . . . . . . . . . .	Number	 00000071h   
VK_F3  . . . . . . . . . . . . .	Number	 00000072h   
VK_F4  . . . . . . . . . . . . .	Number	 00000073h   
VK_F5  . . . . . . . . . . . . .	Number	 00000074h   
VK_F6  . . . . . . . . . . . . .	Number	 00000075h   
VK_F7  . . . . . . . . . . . . .	Number	 00000076h   
VK_F8  . . . . . . . . . . . . .	Number	 00000077h   
VK_F9  . . . . . . . . . . . . .	Number	 00000078h   
VK_HELP  . . . . . . . . . . . .	Number	 0000002Fh   
VK_HOME  . . . . . . . . . . . .	Number	 00000024h   
VK_INSERT  . . . . . . . . . . .	Number	 0000002Dh   
VK_LBUTTON . . . . . . . . . . .	Number	 00000001h   
VK_LCONTROL  . . . . . . . . . .	Number	 000000A2h   
VK_LEFT  . . . . . . . . . . . .	Number	 00000025h   
VK_LMENU . . . . . . . . . . . .	Number	 000000A4h   
VK_LSHIFT  . . . . . . . . . . .	Number	 000000A0h   
VK_MENU  . . . . . . . . . . . .	Number	 00000012h   
VK_MULTIPLY  . . . . . . . . . .	Number	 0000006Ah   
VK_NEXT  . . . . . . . . . . . .	Number	 00000022h   
VK_NUMLOCK . . . . . . . . . . .	Number	 00000090h   
VK_NUMPAD0 . . . . . . . . . . .	Number	 00000060h   
VK_NUMPAD1 . . . . . . . . . . .	Number	 00000061h   
VK_NUMPAD2 . . . . . . . . . . .	Number	 00000062h   
VK_NUMPAD3 . . . . . . . . . . .	Number	 00000063h   
VK_NUMPAD4 . . . . . . . . . . .	Number	 00000064h   
VK_NUMPAD5 . . . . . . . . . . .	Number	 00000065h   
VK_NUMPAD6 . . . . . . . . . . .	Number	 00000066h   
VK_NUMPAD7 . . . . . . . . . . .	Number	 00000067h   
VK_NUMPAD8 . . . . . . . . . . .	Number	 00000068h   
VK_NUMPAD9 . . . . . . . . . . .	Number	 00000069h   
VK_PAUSE . . . . . . . . . . . .	Number	 00000013h   
VK_PRINT . . . . . . . . . . . .	Number	 0000002Ah   
VK_PRIOR . . . . . . . . . . . .	Number	 00000021h   
VK_RBUTTON . . . . . . . . . . .	Number	 00000002h   
VK_RCONTROL  . . . . . . . . . .	Number	 000000A3h   
VK_RETURN  . . . . . . . . . . .	Number	 0000000Dh   
VK_RIGHT . . . . . . . . . . . .	Number	 00000027h   
VK_RMENU . . . . . . . . . . . .	Number	 000000A5h   
VK_RSHIFT  . . . . . . . . . . .	Number	 000000A1h   
VK_SCROLL  . . . . . . . . . . .	Number	 00000091h   
VK_SEPARATER . . . . . . . . . .	Number	 0000006Ch   
VK_SHIFT . . . . . . . . . . . .	Number	 00000010h   
VK_SNAPSHOT  . . . . . . . . . .	Number	 0000002Ch   
VK_SPACE . . . . . . . . . . . .	Number	 00000020h   
VK_SUBTRACT  . . . . . . . . . .	Number	 0000006Dh   
VK_TAB . . . . . . . . . . . . .	Number	 00000009h   
VK_UP  . . . . . . . . . . . . .	Number	 00000026h   
WINDOW_BUFFER_SIZE_EVENT . . . .	Number	 00000004h   
WriteConsoleOutputCharacter  . .	Text   	 WriteConsoleOutputCharacterA
WriteConsole . . . . . . . . . .	Text   	 WriteConsoleA
black  . . . . . . . . . . . . .	Number	 00000000h   
blue . . . . . . . . . . . . . .	Number	 00000001h   
brown  . . . . . . . . . . . . .	Number	 00000006h   
buffer1  . . . . . . . . . . . .	Byte	 00000000 _DATA	
buffer2  . . . . . . . . . . . .	Byte	 000000FF _DATA	
bufferPatch  . . . . . . . . . .	Byte	 000001FE _DATA	
cyan . . . . . . . . . . . . . .	Number	 00000003h   
end_line . . . . . . . . . . . .	Text   	 0dh, 0ah
endl . . . . . . . . . . . . . .	Byte	 0000035B _DATA	
exit . . . . . . . . . . . . . .	Text   	 INVOKE ExitProcess,0
fileHandle . . . . . . . . . . .	DWord	 00000357 _DATA	
filename . . . . . . . . . . . .	Byte	 00000307 _DATA	
flag1  . . . . . . . . . . . . .	Byte	 00000304 _DATA	
flag2  . . . . . . . . . . . . .	Byte	 00000305 _DATA	
flag3  . . . . . . . . . . . . .	Byte	 00000306 _DATA	
gray . . . . . . . . . . . . . .	Number	 00000008h   
green  . . . . . . . . . . . . .	Number	 00000002h   
lightBlue  . . . . . . . . . . .	Number	 00000009h   
lightCyan  . . . . . . . . . . .	Number	 0000000Bh   
lightGray  . . . . . . . . . . .	Number	 00000007h   
lightGreen . . . . . . . . . . .	Number	 0000000Ah   
lightMagenta . . . . . . . . . .	Number	 0000000Dh   
lightRed . . . . . . . . . . . .	Number	 0000000Ch   
magenta  . . . . . . . . . . . .	Number	 00000005h   
pocetak  . . . . . . . . . . . .	Byte	 000002FD _DATA	
red  . . . . . . . . . . . . . .	Number	 00000004h   
white  . . . . . . . . . . . . .	Number	 0000000Fh   
wsprintf . . . . . . . . . . . .	Text   	 wsprintfA
yellow . . . . . . . . . . . . .	Number	 0000000Eh   

	   0 Warnings
	   0 Errors
